info face="Tahoma" size=42 bold=0 italic=0 charset="" unicode=1 stretchH=100 smooth=1 aa=4 padding=0,0,0,0 spacing=3,3 outline=1
common lineHeight=42 base=35 scaleW=512 scaleH=512 pages=1 packed=0 alphaChnl=1 redChnl=2 greenChnl=2 blueChnl=2
page id=0 file="Tahoma_0.png"
chars count=191
char id=32   x=505   y=74    width=3     height=3     xoffset=-1    yoffset=-1    xadvance=10    page=0  chnl=15
char id=33   x=53    y=211   width=7     height=28    xoffset=2     yoffset=8     xadvance=11    page=0  chnl=15
char id=34   x=352   y=231   width=13    height=13    xoffset=0     yoffset=7     xadvance=14    page=0  chnl=15
char id=35   x=443   y=143   width=23    height=28    xoffset=1     yoffset=8     xadvance=25    page=0  chnl=15
char id=36   x=267   y=40    width=18    height=35    xoffset=0     yoffset=6     xadvance=19    page=0  chnl=15
char id=37   x=64    y=115   width=33    height=29    xoffset=0     yoffset=7     xadvance=34    page=0  chnl=15
char id=38   x=100   y=115   width=26    height=29    xoffset=0     yoffset=7     xadvance=23    page=0  chnl=15
char id=39   x=368   y=231   width=6     height=13    xoffset=0     yoffset=7     xadvance=7     page=0  chnl=15
char id=40   x=102   y=41    width=13    height=36    xoffset=0     yoffset=7     xadvance=13    page=0  chnl=15
char id=41   x=86    y=41    width=13    height=36    xoffset=0     yoffset=7     xadvance=13    page=0  chnl=15
char id=42   x=153   y=235   width=18    height=19    xoffset=0     yoffset=7     xadvance=19    page=0  chnl=15
char id=43   x=180   y=209   width=22    height=23    xoffset=1     yoffset=12    xadvance=25    page=0  chnl=15
char id=44   x=315   y=231   width=10    height=14    xoffset=0     yoffset=28    xadvance=10    page=0  chnl=15
char id=45   x=494   y=228   width=12    height=6     xoffset=0     yoffset=21    xadvance=12    page=0  chnl=15
char id=46   x=453   y=230   width=7     height=7     xoffset=2     yoffset=28    xadvance=10    page=0  chnl=15
char id=47   x=327   y=40    width=15    height=35    xoffset=-1    yoffset=7     xadvance=13    page=0  chnl=15
char id=48   x=298   y=112   width=19    height=29    xoffset=0     yoffset=7     xadvance=19    page=0  chnl=15
char id=49   x=469   y=172   width=15    height=28    xoffset=2     yoffset=8     xadvance=19    page=0  chnl=15
char id=50   x=390   y=175   width=18    height=28    xoffset=0     yoffset=7     xadvance=19    page=0  chnl=15
char id=51   x=42    y=148   width=18    height=29    xoffset=0     yoffset=7     xadvance=19    page=0  chnl=15
char id=52   x=192   y=178   width=20    height=28    xoffset=-1    yoffset=8     xadvance=19    page=0  chnl=15
char id=53   x=369   y=175   width=18    height=28    xoffset=0     yoffset=8     xadvance=19    page=0  chnl=15
char id=54   x=386   y=111   width=19    height=29    xoffset=0     yoffset=7     xadvance=19    page=0  chnl=15
char id=55   x=238   y=175   width=19    height=28    xoffset=0     yoffset=8     xadvance=19    page=0  chnl=15
char id=56   x=408   y=111   width=19    height=29    xoffset=0     yoffset=7     xadvance=19    page=0  chnl=15
char id=57   x=430   y=111   width=19    height=29    xoffset=0     yoffset=7     xadvance=19    page=0  chnl=15
char id=58   x=36    y=242   width=7     height=22    xoffset=3     yoffset=14    xadvance=12    page=0  chnl=15
char id=59   x=30    y=211   width=10    height=28    xoffset=1     yoffset=14    xadvance=12    page=0  chnl=15
char id=60   x=393   y=206   width=21    height=22    xoffset=2     yoffset=13    xadvance=25    page=0  chnl=15
char id=61   x=328   y=231   width=21    height=13    xoffset=2     yoffset=17    xadvance=25    page=0  chnl=15
char id=62   x=369   y=206   width=21    height=22    xoffset=2     yoffset=13    xadvance=25    page=0  chnl=15
char id=63   x=450   y=174   width=16    height=28    xoffset=0     yoffset=7     xadvance=16    page=0  chnl=15
char id=64   x=70    y=80    width=30    height=32    xoffset=1     yoffset=7     xadvance=31    page=0  chnl=15
char id=65   x=310   y=144   width=24    height=28    xoffset=-1    yoffset=8     xadvance=20    page=0  chnl=15
char id=66   x=146   y=178   width=20    height=28    xoffset=1     yoffset=8     xadvance=20    page=0  chnl=15
char id=67   x=183   y=113   width=22    height=29    xoffset=-1    yoffset=7     xadvance=20    page=0  chnl=15
char id=68   x=391   y=143   width=23    height=28    xoffset=1     yoffset=8     xadvance=23    page=0  chnl=15
char id=69   x=304   y=175   width=19    height=28    xoffset=1     yoffset=8     xadvance=19    page=0  chnl=15
char id=70   x=348   y=175   width=18    height=28    xoffset=1     yoffset=8     xadvance=18    page=0  chnl=15
char id=71   x=157   y=115   width=23    height=29    xoffset=-1    yoffset=7     xadvance=23    page=0  chnl=15
char id=72   x=74    y=180   width=21    height=28    xoffset=1     yoffset=8     xadvance=23    page=0  chnl=15
char id=73   x=15    y=211   width=12    height=28    xoffset=0     yoffset=8     xadvance=13    page=0  chnl=15
char id=74   x=495   y=140   width=14    height=28    xoffset=-1    yoffset=8     xadvance=14    page=0  chnl=15
char id=75   x=98    y=179   width=21    height=28    xoffset=1     yoffset=8     xadvance=20    page=0  chnl=15
char id=76   x=411   y=174   width=17    height=28    xoffset=1     yoffset=8     xadvance=17    page=0  chnl=15
char id=77   x=337   y=144   width=24    height=28    xoffset=1     yoffset=8     xadvance=26    page=0  chnl=15
char id=78   x=50    y=180   width=21    height=28    xoffset=1     yoffset=8     xadvance=23    page=0  chnl=15
char id=79   x=129   y=115   width=25    height=29    xoffset=-1    yoffset=7     xadvance=24    page=0  chnl=15
char id=80   x=326   y=175   width=19    height=28    xoffset=1     yoffset=8     xadvance=19    page=0  chnl=15
char id=81   x=164   y=41    width=25    height=35    xoffset=-1    yoffset=7     xadvance=24    page=0  chnl=15
char id=82   x=0     y=180   width=22    height=28    xoffset=1     yoffset=8     xadvance=21    page=0  chnl=15
char id=83   x=231   y=112   width=20    height=29    xoffset=0     yoffset=7     xadvance=19    page=0  chnl=15
char id=84   x=417   y=143   width=23    height=28    xoffset=-1    yoffset=8     xadvance=20    page=0  chnl=15
char id=85   x=122   y=178   width=21    height=28    xoffset=1     yoffset=8     xadvance=22    page=0  chnl=15
char id=86   x=364   y=144   width=24    height=28    xoffset=-1    yoffset=8     xadvance=20    page=0  chnl=15
char id=87   x=177   y=147   width=33    height=28    xoffset=-1    yoffset=8     xadvance=31    page=0  chnl=15
char id=88   x=25    y=180   width=22    height=28    xoffset=-1    yoffset=8     xadvance=20    page=0  chnl=15
char id=89   x=469   y=141   width=23    height=28    xoffset=-1    yoffset=8     xadvance=20    page=0  chnl=15
char id=90   x=215   y=175   width=20    height=28    xoffset=-1    yoffset=8     xadvance=19    page=0  chnl=15
char id=91   x=118   y=41    width=11    height=36    xoffset=1     yoffset=7     xadvance=13    page=0  chnl=15
char id=92   x=309   y=40    width=15    height=35    xoffset=-1    yoffset=7     xadvance=13    page=0  chnl=15
char id=93   x=132   y=41    width=11    height=36    xoffset=0     yoffset=7     xadvance=13    page=0  chnl=15
char id=94   x=245   y=232   width=23    height=17    xoffset=1     yoffset=8     xadvance=25    page=0  chnl=15
char id=95   x=0     y=267   width=22    height=5     xoffset=-1    yoffset=36    xadvance=19    page=0  chnl=15
char id=96   x=430   y=230   width=10    height=9     xoffset=3     yoffset=5     xadvance=19    page=0  chnl=15
char id=97   x=249   y=206   width=18    height=23    xoffset=-1    yoffset=14    xadvance=18    page=0  chnl=15
char id=98   x=0     y=115   width=19    height=30    xoffset=1     yoffset=7     xadvance=19    page=0  chnl=15
char id=99   x=270   y=206   width=17    height=23    xoffset=-1    yoffset=14    xadvance=16    page=0  chnl=15
char id=100  x=474   y=75    width=19    height=30    xoffset=-1    yoffset=6     xadvance=19    page=0  chnl=15
char id=101  x=205   y=209   width=19    height=23    xoffset=-1    yoffset=14    xadvance=18    page=0  chnl=15
char id=102  x=494   y=108   width=15    height=29    xoffset=-1    yoffset=6     xadvance=11    page=0  chnl=15
char id=103  x=276   y=112   width=19    height=29    xoffset=-1    yoffset=14    xadvance=19    page=0  chnl=15
char id=104  x=473   y=109   width=18    height=29    xoffset=1     yoffset=7     xadvance=19    page=0  chnl=15
char id=105  x=63    y=211   width=6     height=28    xoffset=1     yoffset=8     xadvance=8     page=0  chnl=15
char id=106  x=345   y=40    width=11    height=35    xoffset=-2    yoffset=8     xadvance=9     page=0  chnl=15
char id=107  x=0     y=148   width=18    height=29    xoffset=1     yoffset=7     xadvance=17    page=0  chnl=15
char id=108  x=496   y=74    width=6     height=29    xoffset=1     yoffset=7     xadvance=8     page=0  chnl=15
char id=109  x=309   y=206   width=27    height=22    xoffset=1     yoffset=14    xadvance=29    page=0  chnl=15
char id=110  x=483   y=203   width=18    height=22    xoffset=1     yoffset=14    xadvance=19    page=0  chnl=15
char id=111  x=227   y=206   width=19    height=23    xoffset=-1    yoffset=14    xadvance=18    page=0  chnl=15
char id=112  x=320   y=112   width=19    height=29    xoffset=1     yoffset=14    xadvance=19    page=0  chnl=15
char id=113  x=342   y=112   width=19    height=29    xoffset=-1    yoffset=14    xadvance=19    page=0  chnl=15
char id=114  x=20    y=242   width=13    height=22    xoffset=1     yoffset=14    xadvance=12    page=0  chnl=15
char id=115  x=290   y=206   width=16    height=23    xoffset=0     yoffset=14    xadvance=15    page=0  chnl=15
char id=116  x=487   y=172   width=14    height=28    xoffset=-1    yoffset=9     xadvance=11    page=0  chnl=15
char id=117  x=462   y=205   width=18    height=22    xoffset=1     yoffset=14    xadvance=19    page=0  chnl=15
char id=118  x=417   y=205   width=20    height=22    xoffset=-1    yoffset=14    xadvance=17    page=0  chnl=15
char id=119  x=339   y=206   width=27    height=22    xoffset=-1    yoffset=14    xadvance=25    page=0  chnl=15
char id=120  x=440   y=205   width=19    height=22    xoffset=-1    yoffset=14    xadvance=17    page=0  chnl=15
char id=121  x=208   y=112   width=20    height=29    xoffset=-1    yoffset=14    xadvance=17    page=0  chnl=15
char id=122  x=0     y=242   width=17    height=22    xoffset=-1    yoffset=14    xadvance=15    page=0  chnl=15
char id=123  x=66    y=41    width=17    height=36    xoffset=-1    yoffset=7     xadvance=16    page=0  chnl=15
char id=124  x=146   y=41    width=6     height=36    xoffset=4     yoffset=7     xadvance=13    page=0  chnl=15
char id=125  x=46    y=41    width=17    height=36    xoffset=0     yoffset=7     xadvance=16    page=0  chnl=15
char id=126  x=377   y=231   width=23    height=12    xoffset=1     yoffset=17    xadvance=25    page=0  chnl=15
char id=160  x=506   y=0     width=3     height=3     xoffset=-1    yoffset=-1    xadvance=10    page=0  chnl=15
char id=161  x=43    y=211   width=7     height=28    xoffset=2     yoffset=8     xadvance=11    page=0  chnl=15
char id=162  x=429   y=39    width=17    height=34    xoffset=0     yoffset=8     xadvance=19    page=0  chnl=15
char id=163  x=260   y=175   width=19    height=28    xoffset=0     yoffset=7     xadvance=19    page=0  chnl=15
char id=164  x=87    y=240   width=19    height=19    xoffset=0     yoffset=13    xadvance=19    page=0  chnl=15
char id=165  x=169   y=178   width=20    height=28    xoffset=-1    yoffset=8     xadvance=19    page=0  chnl=15
char id=166  x=155   y=41    width=6     height=36    xoffset=4     yoffset=7     xadvance=13    page=0  chnl=15
char id=167  x=288   y=40    width=18    height=35    xoffset=0     yoffset=7     xadvance=19    page=0  chnl=15
char id=168  x=463   y=230   width=13    height=6     xoffset=3     yoffset=8     xadvance=19    page=0  chnl=15
char id=169  x=0     y=80    width=32    height=32    xoffset=0     yoffset=7     xadvance=32    page=0  chnl=15
char id=170  x=194   y=235   width=16    height=19    xoffset=0     yoffset=7     xadvance=17    page=0  chnl=15
char id=171  x=109   y=239   width=19    height=19    xoffset=0     yoffset=14    xadvance=20    page=0  chnl=15
char id=172  x=290   y=232   width=22    height=15    xoffset=1     yoffset=20    xadvance=25    page=0  chnl=15
char id=173  x=479   y=230   width=12    height=6     xoffset=0     yoffset=21    xadvance=12    page=0  chnl=15
char id=174  x=35    y=80    width=32    height=32    xoffset=0     yoffset=7     xadvance=32    page=0  chnl=15
char id=175  x=25    y=267   width=22    height=5     xoffset=-1    yoffset=3     xadvance=19    page=0  chnl=15
char id=176  x=271   y=232   width=16    height=16    xoffset=0     yoffset=7     xadvance=16    page=0  chnl=15
char id=177  x=121   y=210   width=22    height=24    xoffset=1     yoffset=9     xadvance=25    page=0  chnl=15
char id=178  x=213   y=235   width=14    height=19    xoffset=2     yoffset=7     xadvance=17    page=0  chnl=15
char id=179  x=70    y=242   width=14    height=20    xoffset=1     yoffset=7     xadvance=17    page=0  chnl=15
char id=180  x=417   y=230   width=10    height=9     xoffset=6     yoffset=5     xadvance=19    page=0  chnl=15
char id=181  x=21    y=148   width=18    height=29    xoffset=1     yoffset=14    xadvance=19    page=0  chnl=15
char id=182  x=408   y=40    width=18    height=34    xoffset=-1    yoffset=8     xadvance=19    page=0  chnl=15
char id=183  x=443   y=230   width=7     height=8     xoffset=3     yoffset=14    xadvance=12    page=0  chnl=15
char id=184  x=403   y=231   width=11    height=10    xoffset=3     yoffset=33    xadvance=19    page=0  chnl=15
char id=185  x=230   y=232   width=12    height=19    xoffset=2     yoffset=8     xadvance=17    page=0  chnl=15
char id=186  x=174   y=235   width=17    height=19    xoffset=0     yoffset=7     xadvance=17    page=0  chnl=15
char id=187  x=131   y=237   width=19    height=19    xoffset=1     yoffset=14    xadvance=20    page=0  chnl=15
char id=188  x=248   y=144   width=31    height=28    xoffset=1     yoffset=8     xadvance=34    page=0  chnl=15
char id=189  x=141   y=147   width=33    height=28    xoffset=1     yoffset=8     xadvance=34    page=0  chnl=15
char id=190  x=213   y=144   width=32    height=28    xoffset=1     yoffset=7     xadvance=34    page=0  chnl=15
char id=191  x=431   y=174   width=16    height=28    xoffset=-1    yoffset=8     xadvance=16    page=0  chnl=15
char id=192  x=261   y=0     width=24    height=37    xoffset=-1    yoffset=-1    xadvance=20    page=0  chnl=15
char id=193  x=234   y=0     width=24    height=37    xoffset=-1    yoffset=-1    xadvance=20    page=0  chnl=15
char id=194  x=207   y=0     width=24    height=37    xoffset=-1    yoffset=-1    xadvance=20    page=0  chnl=15
char id=195  x=427   y=0     width=24    height=36    xoffset=-1    yoffset=0     xadvance=20    page=0  chnl=15
char id=196  x=359   y=40    width=24    height=34    xoffset=-1    yoffset=2     xadvance=20    page=0  chnl=15
char id=197  x=454   y=0     width=24    height=36    xoffset=-1    yoffset=-1    xadvance=20    page=0  chnl=15
char id=198  x=104   y=147   width=34    height=28    xoffset=-1    yoffset=8     xadvance=31    page=0  chnl=15
char id=199  x=481   y=0     width=22    height=36    xoffset=-1    yoffset=7     xadvance=20    page=0  chnl=15
char id=200  x=336   y=0     width=19    height=37    xoffset=1     yoffset=-1    xadvance=19    page=0  chnl=15
char id=201  x=358   y=0     width=19    height=37    xoffset=1     yoffset=-1    xadvance=19    page=0  chnl=15
char id=202  x=314   y=0     width=19    height=37    xoffset=1     yoffset=-1    xadvance=19    page=0  chnl=15
char id=203  x=386   y=40    width=19    height=34    xoffset=1     yoffset=1     xadvance=19    page=0  chnl=15
char id=204  x=397   y=0     width=12    height=37    xoffset=0     yoffset=-1    xadvance=13    page=0  chnl=15
char id=205  x=412   y=0     width=12    height=37    xoffset=0     yoffset=-1    xadvance=13    page=0  chnl=15
char id=206  x=380   y=0     width=14    height=37    xoffset=-1    yoffset=-1    xadvance=13    page=0  chnl=15
char id=207  x=449   y=39    width=13    height=34    xoffset=0     yoffset=1     xadvance=13    page=0  chnl=15
char id=208  x=282   y=144   width=25    height=28    xoffset=-1    yoffset=8     xadvance=24    page=0  chnl=15
char id=209  x=0     y=41    width=21    height=36    xoffset=1     yoffset=-1    xadvance=23    page=0  chnl=15
char id=210  x=0     y=0     width=25    height=38    xoffset=-1    yoffset=-1    xadvance=24    page=0  chnl=15
char id=211  x=56    y=0     width=25    height=38    xoffset=-1    yoffset=-1    xadvance=24    page=0  chnl=15
char id=212  x=28    y=0     width=25    height=38    xoffset=-1    yoffset=-1    xadvance=24    page=0  chnl=15
char id=213  x=179   y=0     width=25    height=37    xoffset=-1    yoffset=-1    xadvance=24    page=0  chnl=15
char id=214  x=192   y=40    width=25    height=35    xoffset=-1    yoffset=1     xadvance=24    page=0  chnl=15
char id=215  x=46    y=242   width=21    height=21    xoffset=2     yoffset=13    xadvance=25    page=0  chnl=15
char id=216  x=167   y=79    width=25    height=31    xoffset=-1    yoffset=6     xadvance=24    page=0  chnl=15
char id=217  x=132   y=0     width=21    height=38    xoffset=1     yoffset=-1    xadvance=22    page=0  chnl=15
char id=218  x=108   y=0     width=21    height=38    xoffset=1     yoffset=-1    xadvance=22    page=0  chnl=15
char id=219  x=84    y=0     width=21    height=38    xoffset=1     yoffset=-1    xadvance=22    page=0  chnl=15
char id=220  x=220   y=40    width=21    height=35    xoffset=1     yoffset=1     xadvance=22    page=0  chnl=15
char id=221  x=288   y=0     width=23    height=37    xoffset=-1    yoffset=-1    xadvance=20    page=0  chnl=15
char id=222  x=282   y=175   width=19    height=28    xoffset=1     yoffset=8     xadvance=19    page=0  chnl=15
char id=223  x=22    y=115   width=18    height=30    xoffset=1     yoffset=6     xadvance=19    page=0  chnl=15
char id=224  x=347   y=78    width=18    height=31    xoffset=-1    yoffset=5     xadvance=18    page=0  chnl=15
char id=225  x=326   y=78    width=18    height=31    xoffset=-1    yoffset=5     xadvance=18    page=0  chnl=15
char id=226  x=125   y=80    width=18    height=32    xoffset=-1    yoffset=5     xadvance=18    page=0  chnl=15
char id=227  x=305   y=78    width=18    height=31    xoffset=-1    yoffset=5     xadvance=18    page=0  chnl=15
char id=228  x=63    y=148   width=18    height=29    xoffset=-1    yoffset=8     xadvance=18    page=0  chnl=15
char id=229  x=465   y=39    width=18    height=33    xoffset=-1    yoffset=4     xadvance=18    page=0  chnl=15
char id=230  x=146   y=209   width=31    height=23    xoffset=-1    yoffset=14    xadvance=30    page=0  chnl=15
char id=231  x=84    y=147   width=17    height=29    xoffset=-1    yoffset=14    xadvance=16    page=0  chnl=15
char id=232  x=261   y=78    width=19    height=31    xoffset=-1    yoffset=5     xadvance=18    page=0  chnl=15
char id=233  x=239   y=78    width=19    height=31    xoffset=-1    yoffset=5     xadvance=18    page=0  chnl=15
char id=234  x=103   y=80    width=19    height=32    xoffset=-1    yoffset=5     xadvance=18    page=0  chnl=15
char id=235  x=364   y=112   width=19    height=29    xoffset=-1    yoffset=8     xadvance=18    page=0  chnl=15
char id=236  x=425   y=77    width=10    height=31    xoffset=-1    yoffset=5     xadvance=8     page=0  chnl=15
char id=237  x=438   y=76    width=10    height=31    xoffset=1     yoffset=5     xadvance=8     page=0  chnl=15
char id=238  x=410   y=77    width=12    height=31    xoffset=-1    yoffset=5     xadvance=8     page=0  chnl=15
char id=239  x=0     y=211   width=12    height=28    xoffset=-1    yoffset=7     xadvance=8     page=0  chnl=15
char id=240  x=451   y=76    width=20    height=30    xoffset=-1    yoffset=6     xadvance=19    page=0  chnl=15
char id=241  x=43    y=115   width=18    height=30    xoffset=1     yoffset=5     xadvance=19    page=0  chnl=15
char id=242  x=217   y=78    width=19    height=31    xoffset=-1    yoffset=5     xadvance=18    page=0  chnl=15
char id=243  x=195   y=78    width=19    height=31    xoffset=-1    yoffset=5     xadvance=18    page=0  chnl=15
char id=244  x=486   y=39    width=19    height=32    xoffset=-1    yoffset=5     xadvance=18    page=0  chnl=15
char id=245  x=283   y=78    width=19    height=31    xoffset=-1    yoffset=5     xadvance=18    page=0  chnl=15
char id=246  x=254   y=112   width=19    height=29    xoffset=-1    yoffset=8     xadvance=18    page=0  chnl=15
char id=247  x=95    y=211   width=23    height=25    xoffset=1     yoffset=11    xadvance=25    page=0  chnl=15
char id=248  x=72    y=211   width=20    height=26    xoffset=-1    yoffset=12    xadvance=18    page=0  chnl=15
char id=249  x=368   y=77    width=18    height=31    xoffset=1     yoffset=5     xadvance=19    page=0  chnl=15
char id=250  x=389   y=77    width=18    height=31    xoffset=1     yoffset=5     xadvance=19    page=0  chnl=15
char id=251  x=146   y=80    width=18    height=32    xoffset=1     yoffset=5     xadvance=19    page=0  chnl=15
char id=252  x=452   y=109   width=18    height=29    xoffset=1     yoffset=8     xadvance=19    page=0  chnl=15
char id=253  x=156   y=0     width=20    height=38    xoffset=-1    yoffset=5     xadvance=17    page=0  chnl=15
char id=254  x=24    y=41    width=19    height=36    xoffset=1     yoffset=7     xadvance=19    page=0  chnl=15
char id=255  x=244   y=40    width=20    height=35    xoffset=-1    yoffset=8     xadvance=17    page=0  chnl=15
kernings count=150
kerning first=121 second=46  amount=-3  
kerning first=121 second=44  amount=-3  
kerning first=39  second=65  amount=-1  
kerning first=39  second=198 amount=-1  
kerning first=119 second=46  amount=-1  
kerning first=119 second=44  amount=-1  
kerning first=44  second=41  amount=-1  
kerning first=118 second=46  amount=-3  
kerning first=44  second=93  amount=-1  
kerning first=44  second=125 amount=-1  
kerning first=118 second=44  amount=-3  
kerning first=114 second=46  amount=-4  
kerning first=114 second=44  amount=-4  
kerning first=107 second=45  amount=-1  
kerning first=45  second=74  amount=-1  
kerning first=102 second=238 amount=2   
kerning first=45  second=84  amount=-2  
kerning first=102 second=125 amount=1   
kerning first=102 second=93  amount=1   
kerning first=45  second=88  amount=-1  
kerning first=45  second=89  amount=-2  
kerning first=102 second=92  amount=1   
kerning first=102 second=63  amount=2   
kerning first=102 second=46  amount=-2  
kerning first=102 second=45  amount=-1  
kerning first=102 second=44  amount=-2  
kerning first=102 second=42  amount=1   
kerning first=102 second=41  amount=1   
kerning first=102 second=39  amount=1   
kerning first=102 second=34  amount=1   
kerning first=46  second=41  amount=-1  
kerning first=46  second=44  amount=-2  
kerning first=46  second=45  amount=-2  
kerning first=101 second=84  amount=-2  
kerning first=46  second=93  amount=-1  
kerning first=46  second=125 amount=-1  
kerning first=99  second=84  amount=-1  
kerning first=90  second=248 amount=-1  
kerning first=90  second=121 amount=-1  
kerning first=90  second=111 amount=-1  
kerning first=90  second=101 amount=-1  
kerning first=90  second=45  amount=-1  
kerning first=55  second=44  amount=-2  
kerning first=55  second=46  amount=-2  
kerning first=89  second=248 amount=-2  
kerning first=89  second=230 amount=-2  
kerning first=89  second=198 amount=-1  
kerning first=65  second=84  amount=-2  
kerning first=89  second=118 amount=-1  
kerning first=65  second=86  amount=-1  
kerning first=89  second=117 amount=-1  
kerning first=65  second=89  amount=-1  
kerning first=89  second=115 amount=-1  
kerning first=89  second=114 amount=-1  
kerning first=89  second=113 amount=-2  
kerning first=89  second=112 amount=-1  
kerning first=89  second=111 amount=-2  
kerning first=89  second=110 amount=-1  
kerning first=89  second=109 amount=-1  
kerning first=89  second=103 amount=-2  
kerning first=89  second=101 amount=-2  
kerning first=89  second=100 amount=-2  
kerning first=89  second=97  amount=-2  
kerning first=89  second=74  amount=-1  
kerning first=89  second=65  amount=-1  
kerning first=89  second=58  amount=-3  
kerning first=89  second=46  amount=-4  
kerning first=89  second=45  amount=-2  
kerning first=89  second=44  amount=-4  
kerning first=88  second=248 amount=-1  
kerning first=66  second=84  amount=-1  
kerning first=88  second=121 amount=-1  
kerning first=88  second=45  amount=-1  
kerning first=87  second=248 amount=-1  
kerning first=87  second=230 amount=-1  
kerning first=87  second=121 amount=-1  
kerning first=87  second=111 amount=-1  
kerning first=87  second=101 amount=-1  
kerning first=87  second=97  amount=-1  
kerning first=87  second=58  amount=-1  
kerning first=87  second=46  amount=-3  
kerning first=87  second=44  amount=-4  
kerning first=86  second=248 amount=-1  
kerning first=86  second=230 amount=-1  
kerning first=86  second=198 amount=-1  
kerning first=86  second=121 amount=-1  
kerning first=86  second=117 amount=-1  
kerning first=86  second=111 amount=-1  
kerning first=86  second=101 amount=-1  
kerning first=86  second=97  amount=-1  
kerning first=86  second=65  amount=-1  
kerning first=86  second=58  amount=-1  
kerning first=86  second=46  amount=-4  
kerning first=86  second=44  amount=-4  
kerning first=84  second=248 amount=-3  
kerning first=84  second=230 amount=-3  
kerning first=84  second=198 amount=-2  
kerning first=84  second=122 amount=-2  
kerning first=70  second=44  amount=-4  
kerning first=70  second=46  amount=-4  
kerning first=70  second=58  amount=-1  
kerning first=84  second=121 amount=-3  
kerning first=70  second=63  amount=1   
kerning first=70  second=65  amount=-1  
kerning first=70  second=74  amount=-1  
kerning first=84  second=119 amount=-3  
kerning first=70  second=97  amount=-1  
kerning first=84  second=118 amount=-3  
kerning first=84  second=117 amount=-3  
kerning first=70  second=198 amount=-1  
kerning first=70  second=230 amount=-1  
kerning first=84  second=115 amount=-3  
kerning first=84  second=114 amount=-3  
kerning first=84  second=111 amount=-3  
kerning first=84  second=103 amount=-3  
kerning first=84  second=101 amount=-3  
kerning first=84  second=99  amount=-3  
kerning first=84  second=97  amount=-3  
kerning first=84  second=89  amount=-1  
kerning first=84  second=84  amount=-1  
kerning first=84  second=74  amount=-1  
kerning first=84  second=65  amount=-2  
kerning first=84  second=63  amount=1   
kerning first=84  second=58  amount=-3  
kerning first=84  second=46  amount=-4  
kerning first=84  second=45  amount=-2  
kerning first=84  second=44  amount=-4  
kerning first=82  second=84  amount=-1  
kerning first=82  second=45  amount=-1  
kerning first=80  second=198 amount=-1  
kerning first=80  second=74  amount=-1  
kerning first=80  second=46  amount=-4  
kerning first=80  second=44  amount=-4  
kerning first=76  second=121 amount=-1  
kerning first=75  second=45  amount=-1  
kerning first=76  second=118 amount=-1  
kerning first=76  second=89  amount=-2  
kerning first=75  second=101 amount=-1  
kerning first=75  second=111 amount=-1  
kerning first=76  second=87  amount=-1  
kerning first=75  second=118 amount=-1  
kerning first=75  second=119 amount=-1  
kerning first=75  second=121 amount=-1  
kerning first=76  second=86  amount=-1  
kerning first=75  second=230 amount=-1  
kerning first=75  second=248 amount=-1  
kerning first=76  second=84  amount=-2  
kerning first=76  second=74  amount=1   
kerning first=76  second=45  amount=-2  
kerning first=76  second=39  amount=-2  
