info face="GROBOLD" size=42 bold=0 italic=0 charset="" unicode=1 stretchH=100 smooth=1 aa=1 padding=0,0,0,0 spacing=1,1 outline=2
common lineHeight=41 base=34 scaleW=512 scaleH=512 pages=1 packed=0 alphaChnl=0 redChnl=4 greenChnl=4 blueChnl=4
page id=0 file="Grobold42Outline_0.png"
chars count=111
char id=32   x=344   y=169   width=7     height=5     xoffset=-3    yoffset=38    xadvance=10    page=0  chnl=15
char id=33   x=0     y=41    width=19    height=37    xoffset=7     yoffset=0     xadvance=26    page=0  chnl=15
char id=35   x=0     y=113   width=39    height=32    xoffset=-3    yoffset=4     xadvance=33    page=0  chnl=15
char id=36   x=0     y=0     width=27    height=40    xoffset=-3    yoffset=0     xadvance=22    page=0  chnl=15
char id=37   x=427   y=72    width=23    height=33    xoffset=5     yoffset=3     xadvance=25    page=0  chnl=15
char id=38   x=40    y=112   width=36    height=32    xoffset=-3    yoffset=4     xadvance=29    page=0  chnl=15
char id=39   x=296   y=169   width=11    height=11    xoffset=-1    yoffset=-1    xadvance=9     page=0  chnl=15
char id=40   x=322   y=0     width=15    height=38    xoffset=0     yoffset=1     xadvance=14    page=0  chnl=15
char id=41   x=306   y=0     width=15    height=38    xoffset=-1    yoffset=1     xadvance=13    page=0  chnl=15
char id=43   x=325   y=141   width=28    height=27    xoffset=-1    yoffset=7     xadvance=26    page=0  chnl=15
char id=44   x=284   y=171   width=11    height=11    xoffset=-2    yoffset=28    xadvance=8     page=0  chnl=15
char id=45   x=308   y=169   width=17    height=8     xoffset=-1    yoffset=18    xadvance=16    page=0  chnl=15
char id=46   x=326   y=169   width=9     height=8     xoffset=-1    yoffset=28    xadvance=7     page=0  chnl=15
char id=47   x=451   y=72    width=22    height=33    xoffset=-2    yoffset=3     xadvance=18    page=0  chnl=15
char id=48   x=35    y=78    width=29    height=33    xoffset=-3    yoffset=4     xadvance=23    page=0  chnl=15
char id=49   x=0     y=146   width=22    height=32    xoffset=-3    yoffset=4     xadvance=18    page=0  chnl=15
char id=50   x=125   y=76    width=29    height=33    xoffset=-3    yoffset=3     xadvance=23    page=0  chnl=15
char id=51   x=329   y=39    width=27    height=34    xoffset=-3    yoffset=3     xadvance=22    page=0  chnl=15
char id=52   x=141   y=110   width=27    height=32    xoffset=-3    yoffset=4     xadvance=20    page=0  chnl=15
char id=53   x=304   y=108   width=25    height=32    xoffset=-3    yoffset=5     xadvance=19    page=0  chnl=15
char id=54   x=352   y=74    width=25    height=33    xoffset=-3    yoffset=3     xadvance=19    page=0  chnl=15
char id=55   x=278   y=108   width=25    height=32    xoffset=-3    yoffset=4     xadvance=18    page=0  chnl=15
char id=56   x=325   y=74    width=26    height=33    xoffset=-3    yoffset=4     xadvance=21    page=0  chnl=15
char id=57   x=298   y=74    width=26    height=33    xoffset=-3    yoffset=4     xadvance=19    page=0  chnl=15
char id=58   x=494   y=139   width=12    height=20    xoffset=-3    yoffset=16    xadvance=6     page=0  chnl=15
char id=59   x=271   y=172   width=12    height=16    xoffset=-3    yoffset=23    xadvance=7     page=0  chnl=15
char id=61   x=226   y=173   width=29    height=21    xoffset=-3    yoffset=14    xadvance=24    page=0  chnl=15
char id=63   x=229   y=0     width=30    height=38    xoffset=-3    yoffset=-1    xadvance=25    page=0  chnl=15
char id=64   x=77    y=110   width=33    height=32    xoffset=-3    yoffset=4     xadvance=27    page=0  chnl=15
char id=65   x=99    y=40    width=37    height=35    xoffset=-4    yoffset=2     xadvance=29    page=0  chnl=15
char id=66   x=65    y=76    width=29    height=33    xoffset=-2    yoffset=4     xadvance=23    page=0  chnl=15
char id=67   x=268   y=39    width=31    height=34    xoffset=-3    yoffset=3     xadvance=25    page=0  chnl=15
char id=68   x=95    y=76    width=29    height=33    xoffset=-1    yoffset=3     xadvance=24    page=0  chnl=15
char id=69   x=252   y=108   width=25    height=32    xoffset=-2    yoffset=4     xadvance=20    page=0  chnl=15
char id=70   x=408   y=106   width=24    height=32    xoffset=-1    yoffset=4     xadvance=19    page=0  chnl=15
char id=71   x=382   y=38    width=34    height=33    xoffset=-3    yoffset=4     xadvance=28    page=0  chnl=15
char id=72   x=111   y=110   width=29    height=32    xoffset=-2    yoffset=4     xadvance=25    page=0  chnl=15
char id=73   x=474   y=72    width=15    height=33    xoffset=-1    yoffset=4     xadvance=13    page=0  chnl=15
char id=74   x=378   y=73    width=24    height=33    xoffset=-3    yoffset=4     xadvance=20    page=0  chnl=15
char id=75   x=300   y=39    width=28    height=34    xoffset=-2    yoffset=3     xadvance=22    page=0  chnl=15
char id=76   x=403   y=72    width=23    height=33    xoffset=-1    yoffset=4     xadvance=19    page=0  chnl=15
char id=77   x=59    y=40    width=39    height=35    xoffset=-4    yoffset=3     xadvance=30    page=0  chnl=15
char id=78   x=155   y=75    width=29    height=33    xoffset=-1    yoffset=4     xadvance=26    page=0  chnl=15
char id=79   x=233   y=39    width=34    height=34    xoffset=-4    yoffset=3     xadvance=26    page=0  chnl=15
char id=80   x=214   y=74    width=27    height=33    xoffset=-1    yoffset=4     xadvance=22    page=0  chnl=15
char id=81   x=137   y=39    width=34    height=35    xoffset=-4    yoffset=3     xadvance=26    page=0  chnl=15
char id=82   x=185   y=75    width=28    height=33    xoffset=-2    yoffset=4     xadvance=23    page=0  chnl=15
char id=83   x=242   y=74    width=27    height=33    xoffset=-4    yoffset=4     xadvance=20    page=0  chnl=15
char id=84   x=487   y=38    width=24    height=33    xoffset=-3    yoffset=4     xadvance=18    page=0  chnl=15
char id=85   x=270   y=74    width=27    height=33    xoffset=-3    yoffset=4     xadvance=22    page=0  chnl=15
char id=86   x=198   y=39    width=34    height=34    xoffset=-4    yoffset=4     xadvance=25    page=0  chnl=15
char id=87   x=338   y=0     width=41    height=37    xoffset=-4    yoffset=2     xadvance=33    page=0  chnl=15
char id=88   x=417   y=38    width=34    height=33    xoffset=-3    yoffset=4     xadvance=27    page=0  chnl=15
char id=89   x=0     y=79    width=34    height=33    xoffset=-5    yoffset=4     xadvance=24    page=0  chnl=15
char id=90   x=452   y=38    width=34    height=33    xoffset=-3    yoffset=4     xadvance=28    page=0  chnl=15
char id=97   x=468   y=139   width=25    height=25    xoffset=-3    yoffset=11    xadvance=20    page=0  chnl=15
char id=98   x=169   y=109   width=27    height=32    xoffset=-2    yoffset=4     xadvance=22    page=0  chnl=15
char id=99   x=26    y=179   width=24    height=25    xoffset=-3    yoffset=11    xadvance=18    page=0  chnl=15
char id=100  x=225   y=108   width=26    height=32    xoffset=-3    yoffset=4     xadvance=23    page=0  chnl=15
char id=101  x=0     y=179   width=25    height=25    xoffset=-3    yoffset=11    xadvance=19    page=0  chnl=15
char id=102  x=490   y=72    width=18    height=32    xoffset=-2    yoffset=4     xadvance=14    page=0  chnl=15
char id=103  x=172   y=39    width=25    height=35    xoffset=-3    yoffset=8     xadvance=20    page=0  chnl=15
char id=104  x=433   y=106   width=24    height=32    xoffset=-2    yoffset=4     xadvance=19    page=0  chnl=15
char id=105  x=38    y=146   width=13    height=32    xoffset=-1    yoffset=4     xadvance=11    page=0  chnl=15
char id=106  x=288   y=0     width=17    height=38    xoffset=-3    yoffset=4     xadvance=13    page=0  chnl=15
char id=107  x=458   y=106   width=24    height=32    xoffset=-2    yoffset=4     xadvance=20    page=0  chnl=15
char id=108  x=23    y=146   width=14    height=32    xoffset=-2    yoffset=4     xadvance=10    page=0  chnl=15
char id=109  x=76    y=177   width=34    height=24    xoffset=-2    yoffset=12    xadvance=30    page=0  chnl=15
char id=110  x=137   y=175   width=24    height=24    xoffset=-2    yoffset=12    xadvance=20    page=0  chnl=15
char id=111  x=414   y=139   width=27    height=25    xoffset=-3    yoffset=11    xadvance=21    page=0  chnl=15
char id=112  x=194   y=142   width=27    height=30    xoffset=-2    yoffset=12    xadvance=22    page=0  chnl=15
char id=113  x=222   y=142   width=26    height=30    xoffset=-3    yoffset=12    xadvance=22    page=0  chnl=15
char id=114  x=206   y=173   width=19    height=24    xoffset=-2    yoffset=12    xadvance=14    page=0  chnl=15
char id=115  x=185   y=174   width=20    height=24    xoffset=-2    yoffset=12    xadvance=15    page=0  chnl=15
char id=116  x=274   y=141   width=18    height=29    xoffset=-3    yoffset=7     xadvance=12    page=0  chnl=15
char id=117  x=51    y=179   width=24    height=25    xoffset=-2    yoffset=12    xadvance=20    page=0  chnl=15
char id=118  x=442   y=139   width=25    height=25    xoffset=-4    yoffset=11    xadvance=17    page=0  chnl=15
char id=119  x=379   y=141   width=34    height=25    xoffset=-4    yoffset=11    xadvance=27    page=0  chnl=15
char id=120  x=111   y=175   width=25    height=24    xoffset=-3    yoffset=12    xadvance=19    page=0  chnl=15
char id=121  x=249   y=141   width=24    height=30    xoffset=-3    yoffset=12    xadvance=17    page=0  chnl=15
char id=122  x=162   y=175   width=22    height=24    xoffset=-3    yoffset=12    xadvance=17    page=0  chnl=15
char id=160  x=336   y=169   width=7     height=5     xoffset=-3    yoffset=38    xadvance=17    page=0  chnl=15
char id=176  x=256   y=172   width=14    height=16    xoffset=-3    yoffset=4     xadvance=9     page=0  chnl=15
char id=192  x=158   y=0     width=38    height=38    xoffset=-5    yoffset=-1    xadvance=28    page=0  chnl=15
char id=194  x=119   y=0     width=38    height=38    xoffset=-5    yoffset=-1    xadvance=28    page=0  chnl=15
char id=199  x=197   y=0     width=31    height=38    xoffset=-3    yoffset=3     xadvance=25    page=0  chnl=15
char id=200  x=432   y=0     width=25    height=37    xoffset=-2    yoffset=-1    xadvance=20    page=0  chnl=15
char id=201  x=406   y=0     width=25    height=37    xoffset=-2    yoffset=-1    xadvance=20    page=0  chnl=15
char id=202  x=380   y=0     width=25    height=37    xoffset=-2    yoffset=-1    xadvance=20    page=0  chnl=15
char id=203  x=458   y=0     width=24    height=37    xoffset=-2    yoffset=-1    xadvance=20    page=0  chnl=15
char id=206  x=40    y=40    width=18    height=36    xoffset=-2    yoffset=0     xadvance=13    page=0  chnl=15
char id=207  x=20    y=41    width=19    height=36    xoffset=-3    yoffset=1     xadvance=14    page=0  chnl=15
char id=212  x=28    y=0     width=34    height=39    xoffset=-4    yoffset=-2    xadvance=26    page=0  chnl=15
char id=217  x=260   y=0     width=27    height=38    xoffset=-2    yoffset=-1    xadvance=23    page=0  chnl=15
char id=219  x=63    y=0     width=27    height=39    xoffset=-2    yoffset=-2    xadvance=23    page=0  chnl=15
char id=220  x=91    y=0     width=27    height=39    xoffset=-2    yoffset=-2    xadvance=23    page=0  chnl=15
char id=224  x=330   y=108   width=25    height=32    xoffset=-3    yoffset=4     xadvance=20    page=0  chnl=15
char id=226  x=78    y=143   width=25    height=31    xoffset=-3    yoffset=5     xadvance=20    page=0  chnl=15
char id=228  x=52    y=145   width=25    height=31    xoffset=-3    yoffset=5     xadvance=32    page=0  chnl=15
char id=231  x=354   y=141   width=24    height=27    xoffset=-3    yoffset=12    xadvance=18    page=0  chnl=15
char id=232  x=356   y=108   width=25    height=32    xoffset=-3    yoffset=4     xadvance=20    page=0  chnl=15
char id=233  x=382   y=107   width=25    height=32    xoffset=-3    yoffset=4     xadvance=20    page=0  chnl=15
char id=234  x=104   y=143   width=25    height=31    xoffset=-3    yoffset=5     xadvance=20    page=0  chnl=15
char id=235  x=130   y=143   width=25    height=31    xoffset=-3    yoffset=5     xadvance=20    page=0  chnl=15
char id=238  x=156   y=143   width=18    height=31    xoffset=-4    yoffset=5     xadvance=11    page=0  chnl=15
char id=239  x=175   y=142   width=18    height=31    xoffset=-4    yoffset=5     xadvance=11    page=0  chnl=15
char id=244  x=197   y=109   width=27    height=32    xoffset=-3    yoffset=5     xadvance=21    page=0  chnl=15
char id=247  x=293   y=141   width=31    height=27    xoffset=-2    yoffset=9     xadvance=27    page=0  chnl=15
char id=249  x=357   y=38    width=24    height=34    xoffset=-2    yoffset=3     xadvance=20    page=0  chnl=15
char id=251  x=483   y=106   width=24    height=32    xoffset=-2    yoffset=5     xadvance=20    page=0  chnl=15
char id=255  x=483   y=0     width=24    height=37    xoffset=-4    yoffset=5     xadvance=17    page=0  chnl=15
